:020000040000fa
:020000041d00dd
:10100000009d083cf41308250300041100000000b3
:101010000800e003000000000060604100a0083c00
:101020000000082500a0093c20002925009d0a3c5d
:101030000c1a4a25060009110000000000004b8d23
:1010400004004a2500000bad0d04400b04000825e8
:1010500000a0083c2000082500a0093c2400292508
:101060000400091100000000000000ad1804400b4e
:10107000040008250000083c000008251d000011a0
:101080000000000000a0083c0028082500a0093c42
:1010900000282925009d0a3c2c1a4a250600091122
:1010a0000000000000004b8d04004a2500000bad3d
:1010b0002704400b0400082588bf083c10200825a1
:1010c0000000093c00282925000009ad88bf083c24
:1010d000202008250200093c00002925000009ad58
:1010e00088bf083c302008250200093c0000292563
:1010f000000009ad02a01d3c0000bd2701a01c3c62
:1011000010809c270260094040002a3902608a4012
:1011100000e0dc4102608940006008404000093c7a
:101120002540090100608840009d083c000008251a
:10113000017888400100083440410800016088407f
:10114000006808408000093c25400901006888408b
:1011500000600840bfff093ce9ff29352440090130
:101160000060884088bf083c08100825001009343a
:10117000000009adffff082000588840004880406b
:10118000262084002628a500009d083c0014082580
:1011900009f8000100000000252002000a000234c6
:1011a0000c000000009d043cf71984240400023464
:1011b0000c000000ffff0010000000000300bd371e
:1011c0000300bd3bb0ffbd270000bfaf0400a1afcf
:1011d0000800a8af0c00a9af1000aaaf1400abaf75
:1011e0001800acaf1c00adaf2000aeaf2400afaf15
:1011f0002800b8af2c00b9af3000a4af3400a5afc1
:101200003800a6af3c00a7af124000001048000015
:101210004000a8af4400a9af4800a7270000e2acf7
:101220004c00a3af0000a6340000853400680440e1
:10123000009d083cf41308250000088d09f8000102
:10124000000000000070084004000825007088407d
:101250004000a88f4400a98f130000011100200155
:101260004800a28f4c00a38f0000bf8f0400a18f05
:101270000800a88f0c00a98f1000aa8f1400ab8f54
:101280001800ac8f1c00ad8f2000ae8f2400af8ff4
:101290002800b88f2c00b98f3000a48f3400a58fa0
:1012a0003800a68f3c00a78f5000bd2718000042d1
:020000040000fa
:020000041d00dd
:10018000009d1a3cbc115a270800400300000000e3
:04019000000000006b
:020000040000fa
:020000041d00dd
:080560003805400b000000000b
:020000040000fa
:020000041d00dd
:10140000d8ffbd272000bfaf1c00b3af1800b2af9c
:101410001400b1afac05400f1000b0af1206400f82
:1014200000000000080004241d06400f0e000524e3
:101430004506400f0000000088bf043c4010869025
:10144000fdff03242428c300401085a020606041d4
:10145000009d023cf01952242180000081bf133c02
:101460001a0011247806400f000000006500472c88
:10147000fcffe014000000007a06400f0100102677
:10148000120011120000000010808b93f005400f35
:10149000ff0064316c06400f2120400210808a93c7
:1014a0006806400fff0044317806400f000000003e
:1014b0006500472cebffe014000000007a06400fa7
:1014c00001001026f0ff1116000000000090699244
:1014d0002180000004002835ebff0010009068a276
:1014e00000e85d4100701b4002601a4080ffbd278c
:1014f0007c00bbaf00601b406c00baaf00681a40b4
:101500007800bbaf82d21a00847a5b7f44201b7cb8
:1015100000609b406800a2af6c00a28f6400a3af84
:101520000f004230100040145c00bfaf5800b9af4c
:101530005400b8af5000afaf4c00aeaf4800adaff5
:101540004400acaf4000abaf3c00aaaf3800a9af3d
:101550003400a8af3000a7af2c00a6af2800a5af7d
:101560002400a4af2000a1af12100000101800004a
:101570007400a2af7000a3af81bf023c70904524fd
:1015800021200000070003240000a68cffff632435
:1015900021208600fcff61041000a52407008b2495
:1015a00000008c280b206c013906400fc32004007a
:1015b000108082a381bf083c00900a9188bf053c3f
:1015c00004004935009009a14010a490fdff0724b4
:1015d000241887004010a3a07400a28f7000a38f6e
:1015e000130040006c00a28f110060000f00423019
:1015f000120040145c00bf8f5800b98f5400b88fa0
:101600005000af8f4c00ae8f4800ad8f4400ac8fc0
:101610004000ab8f3c00aa8f3800a98f3400a88f00
:101620003000a78f2c00a68f2800a58f2400a48f40
:101630002000a18f6800a28f6400a38f006060412a
:10164000c00000007c00ba8f7800bb8f00709a4009
:101650006c00ba8f8000bd2702609a4000e8dd412f
:1016600000609b40180000420f008010f8ffbd276b
:10167000881305240000a5af0000a28f0800405089
:10168000ffff84240000a78fffffe6240000a6af21
:101690000000a38ffbff601400000000ffff842404
:1016a000f4ff8014000000000800e0030800bd27dc
:1016b00088bf033c4060648c00fc8230406062acb8
:1016c0000800e0030000000088bf053c6060a38cb8
:1016d0000100862c0442c37c6060a3ac6060a28cd5
:1016e000444a827c6060a2ac0800e0030000000075
:1016f000241085000800e0030610c2000800e00383
:101700000100822ce8ffbd271000b0af21808000cf
:10171000118084931400bfafb205400f0000000099
:1017200000a0083c000003250019077e2130e300db
:101730000000c4801180859388bf083c023085700a
:101740006060028d0f001032213803022120a000ba
:101750002180c0000300a01400ff43300000e98096
:10176000218026012550700060600aadbf05400f42
:10177000000000001400bf8f1000b08f1800bd27bc
:101780000800e003118082a3cccc0c3cff00863023
:10179000cdcc8b351900cb0010500000c2280a00b8
:1017a0008048050021402501403808002320c7005b
:1017b00000190500211064000800e003ff0042301a
:1017c000e8ffbd27ff0084301400bfafe205400fe3
:1017d0001000b0af12808493b205400f218040000a
:1017e00000a0083c100003250019077e2130e3000b
:1017f0000000c4801280859388bf083c0230857049
:101800006060028d0f001032213803022120a000f9
:101810002180c0000300a01400ff43300000e980d5
:10182000218026012550700060600aadbf05400f81
:10183000000000001400bf8f1000b08f1800bd27fb
:101840000800e003128082a388bf063c4060c89075
:1018500081bf053c100007354060c7a06090a49090
:10186000efff0224241882006090a3a00800e00388
:101870000000000081bf063c0090d98c07000324c3
:101880004439797c0090d9ac0090d89081bf0c3c51
:1018900010000f370090cfa020908d8d10000e24e7
:1018a0000462cd7d20908dad81bf093c10902a8dc2
:1018b000ffff8b2484286a7d10902aad81bf073cee
:1018c0004090e88c80ff0224049ca87c4090e8ac07
:1018d0000190c490251882000190c3a00800e00385
:1018e0000000000040510400214844012080083cd1
:1018f000ff0123250308073518006700c3270300ed
:10190000103000002128c300431205000800e00346
:101910002310440088bf053cf010a68c0300072468
:1019200084e6e67cf010a6ac88bf033c701064909f
:1019300002008234701062a00800e0030000000082
:10194000010002340c0000000800e0030000000069
:10195000020002340c0000000800e0030000000058
:10196000030002340c0000000800e0030000000047
:10197000040002340c0000000800e0030000000036
:10198000050002340c0000000800e0030000000025
:10199000060002340c0000000800e0030000000014
:1019a000070002340c0000000800e0030000000003
:1019b000080002340c0000000800e00300000000f2
:1019c000090002340c0000000800e00300000000e1
:1019d0000a0002340c000000ffff001000000000ad
:1019e0000800e003004802400800e003004880408f
:020000040000fa
:020000041d00dd
:1019f0000a56616c3a20000a50726f6772616d205e
:0c1a00007465726d696e617465640a00a3
:020000040000fa
:020000041d00dd
:101a0c0077413b6b4d6e7e437f6f5f7c36793e1e1c
:101a1c0077413b6b4d6e7e437f6f5f7c36793e1e0c
:00000001FF
